module github.com/jrockway/json-logs

go 1.15

require (
	code.cloudfoundry.org/lager v2.0.0+incompatible
	github.com/google/go-cmp v0.5.1
	github.com/itchyny/gojq v0.11.0
	github.com/jessevdk/go-flags v1.4.0
	github.com/joonix/log v0.0.0-20200409080653-9c1d2ceb5f1d
	github.com/logrusorgru/aurora v2.0.3+incompatible
	github.com/logrusorgru/aurora/v3 v3.0.0
	github.com/mattn/go-colorable v0.1.7
	github.com/mattn/go-isatty v0.0.12
	github.com/sirupsen/logrus v1.6.0
	go.uber.org/zap v1.15.0
)
